<?xml version="1.0" encoding="UTF-8" standalone="no"?>
<svg
   xmlns:dc="http://purl.org/dc/elements/1.1/"
   xmlns:cc="http://creativecommons.org/ns#"
   xmlns:rdf="http://www.w3.org/1999/02/22-rdf-syntax-ns#"
   xmlns:svg="http://www.w3.org/2000/svg"
   xmlns="http://www.w3.org/2000/svg"
   xmlns:xlink="http://www.w3.org/1999/xlink"
   xmlns:sodipodi="http://sodipodi.sourceforge.net/DTD/sodipodi-0.dtd"
   xmlns:inkscape="http://www.inkscape.org/namespaces/inkscape"
   width="64"
   height="64"
   viewBox="0 0 16.933 16.933"
   version="1.1"
   id="svg41"
   sodipodi:docname="default-folder-publicshare.svg"
   inkscape:version="0.92.4 (unknown)">
  <metadata
     id="metadata45">
    <rdf:RDF>
      <cc:Work
         rdf:about="">
        <dc:format>image/svg+xml</dc:format>
        <dc:type
           rdf:resource="http://purl.org/dc/dcmitype/StillImage" />
      </cc:Work>
    </rdf:RDF>
  </metadata>
  <sodipodi:namedview
     pagecolor="#ffffff"
     bordercolor="#666666"
     borderopacity="1"
     objecttolerance="10"
     gridtolerance="10"
     guidetolerance="10"
     inkscape:pageopacity="0"
     inkscape:pageshadow="2"
     inkscape:window-width="1366"
     inkscape:window-height="718"
     id="namedview43"
     showgrid="false"
     inkscape:zoom="10.429825"
     inkscape:cx="15.176424"
     inkscape:cy="32.455774"
     inkscape:window-x="0"
     inkscape:window-y="22"
     inkscape:window-maximized="1"
     inkscape:current-layer="svg41" />
  <defs
     id="defs11">
    <linearGradient
       xlink:href="#a"
       id="c"
       x1="-197.102"
       y1="217.681"
       x2="-196.914"
       y2="219.365"
       gradientUnits="userSpaceOnUse" />
    <linearGradient
       id="a">
      <stop
         offset="0"
         id="stop3" />
      <stop
         offset="1"
         stop-opacity="0"
         id="stop5" />
    </linearGradient>
    <clipPath
       clipPathUnits="userSpaceOnUse"
       id="b">
      <rect
         ry=".529"
         y="285.358"
         x=".529"
         height="9.525"
         width="15.875"
         transform="rotate(45)"
         fill="#5677fc"
         stroke-width=".251"
         stroke-opacity=".196"
         paint-order="markers stroke fill"
         id="rect8" />
    </clipPath>
  </defs>
  <g
     transform="translate(0 -280.067)"
     id="g25">
    <path
       d="M8.467 284.3c-.293 0-.382.276-.53.53l-.308.528H.794c-.265 0-.265.265-.265.265v8.996c0 .264.265.264.265.264H16.14c.264 0 .264-.264.264-.264v-10.054c0-.265-.264-.265-.264-.265z"
       id="path17"
       style="stroke:#808080;stroke-opacity:1"
       paint-order="markers stroke fill"
       stroke-opacity=".561"
       stroke-width=".529"
       stroke="#003779"
       fill="none" />
  </g>
  <g
     transform="translate(0 4.498) scale(.26458)"
     id="g39">
    <g
       id="g37"
       opacity=".3">
      <path
         style="stroke-width:1.00000703;fill:#000000;fill-opacity:1;"
         d="M 36 25 A 4.0000283 4.0000283 0 0 0 32.554688 31.03125 L 30.03125 33.554688 A 4.0000283 4.0000283 0 0 0 28 33 A 4.0000283 4.0000283 0 0 0 28 41 A 4.0000283 4.0000283 0 0 0 30.029297 40.443359 L 32.558594 42.972656 A 4.0000283 4.0000283 0 0 0 36 49 A 4.0000283 4.0000283 0 0 0 36 41 A 4.0000283 4.0000283 0 0 0 33.972656 41.558594 L 31.441406 39.027344 A 4.0000283 4.0000283 0 0 0 31.445312 34.970703 L 33.96875 32.445312 A 4.0000283 4.0000283 0 0 0 36 33 A 4.0000283 4.0000283 0 0 0 36 25 z M 36 26 A 3.0000213 3.0000213 0 0 1 36 32 A 3.0000213 3.0000213 0 0 1 36 26 z M 28 34 A 3.0000213 3.0000213 0 0 1 28 40 A 3.0000213 3.0000213 0 0 1 28 34 z M 36 42 A 3.0000213 3.0000213 0 0 1 36 48 A 3.0000213 3.0000213 0 0 1 36 42 z "
         id="path33"
         transform="matrix(0.99999291,0,0,0.99999291,0,-17.000529)" />
    </g>
  </g>
  <path
     inkscape:connector-curvature="0"
     style="fill:#808080;fill-opacity:1;stroke-width:0.26457998"
     d="M 9.5248046,6.614453 A 1.05832,1.05832 0 0 0 8.6132506,8.2101898 L 7.9456037,8.8778363 A 1.05832,1.05832 0 0 0 7.4081794,8.731078 a 1.05832,1.05832 0 0 0 0,2.116625 1.05832,1.05832 0 0 0 0.5369076,-0.147275 l 0.6691966,0.669197 a 1.05832,1.05832 0 0 0 0.910521,1.594703 1.05832,1.05832 0 0 0 0,-2.116625 1.05832,1.05832 0 0 0 -0.536391,0.147792 L 8.3187001,10.325781 a 1.05832,1.05832 0 0 0 0.00103,-1.0732981 l 0.66765,-0.6681632 a 1.05832,1.05832 0 0 0 0.537425,0.1467583 1.05832,1.05832 0 0 0 -5e-7,-2.116625 z m 0,0.2645782 a 0.79374001,0.79374001 0 0 1 0,1.5874687 0.79374001,0.79374001 0 0 1 0,-1.5874687 z M 7.4081794,8.9956561 a 0.79374001,0.79374001 0 0 1 0,1.5874689 0.79374001,0.79374001 0 0 1 0,-1.5874689 z m 2.1166252,2.1166249 a 0.79374001,0.79374001 0 0 1 0,1.587469 0.79374001,0.79374001 0 0 1 0,-1.587469 z"
     id="path33-3" />
</svg>
