<?xml version="1.0" encoding="UTF-8" standalone="no"?>
<svg
   xmlns:dc="http://purl.org/dc/elements/1.1/"
   xmlns:cc="http://creativecommons.org/ns#"
   xmlns:rdf="http://www.w3.org/1999/02/22-rdf-syntax-ns#"
   xmlns:svg="http://www.w3.org/2000/svg"
   xmlns="http://www.w3.org/2000/svg"
   xmlns:xlink="http://www.w3.org/1999/xlink"
   xmlns:sodipodi="http://sodipodi.sourceforge.net/DTD/sodipodi-0.dtd"
   xmlns:inkscape="http://www.inkscape.org/namespaces/inkscape"
   width="64"
   height="64"
   viewBox="0 0 16.933 16.933"
   version="1.1"
   id="svg31"
   sodipodi:docname="default-folder-system.svg"
   inkscape:version="0.92.4 (unknown)">
  <metadata
     id="metadata35">
    <rdf:RDF>
      <cc:Work
         rdf:about="">
        <dc:format>image/svg+xml</dc:format>
        <dc:type
           rdf:resource="http://purl.org/dc/dcmitype/StillImage" />
      </cc:Work>
    </rdf:RDF>
  </metadata>
  <sodipodi:namedview
     pagecolor="#ffffff"
     bordercolor="#666666"
     borderopacity="1"
     objecttolerance="10"
     gridtolerance="10"
     guidetolerance="10"
     inkscape:pageopacity="0"
     inkscape:pageshadow="2"
     inkscape:window-width="1366"
     inkscape:window-height="718"
     id="namedview33"
     showgrid="false"
     inkscape:zoom="7.375"
     inkscape:cx="12.474909"
     inkscape:cy="23.896955"
     inkscape:window-x="0"
     inkscape:window-y="22"
     inkscape:window-maximized="1"
     inkscape:current-layer="svg31" />
  <defs
     id="defs11">
    <linearGradient
       xlink:href="#a"
       id="c"
       x1="-197.102"
       y1="217.681"
       x2="-196.914"
       y2="219.365"
       gradientUnits="userSpaceOnUse" />
    <linearGradient
       id="a">
      <stop
         offset="0"
         id="stop3" />
      <stop
         offset="1"
         stop-opacity="0"
         id="stop5" />
    </linearGradient>
    <clipPath
       clipPathUnits="userSpaceOnUse"
       id="b">
      <rect
         ry=".529"
         y="285.358"
         x=".529"
         height="9.525"
         width="15.875"
         transform="rotate(45)"
         fill="#5677fc"
         stroke-width=".251"
         stroke-opacity=".196"
         paint-order="markers stroke fill"
         id="rect8" />
    </clipPath>
  </defs>
  <g
     transform="translate(0 -280.067)"
     id="g25">
    <path
       d="M8.467 284.3c-.293 0-.382.276-.53.53l-.308.528H.794c-.265 0-.265.265-.265.265v8.996c0 .264.265.264.265.264H16.14c.264 0 .264-.264.264-.264v-10.054c0-.265-.264-.265-.264-.265z"
       fill="none"
       stroke="#003779"
       stroke-width=".529"
       stroke-opacity=".561"
       paint-order="markers stroke fill"
       id="path17"
       style="stroke:#808080;stroke-opacity:1" />
  </g>
  <path
     d="M8.16 7.673v.72a1.69 1.69 0 0 0-.65.269L7 8.152l-.435.436.51.51a1.69 1.69 0 0 0-.27.649h-.72v.615h.721a1.69 1.69 0 0 0 .268.65l-.509.509.435.434.51-.51a1.69 1.69 0 0 0 .65.27v.72h.614v-.72a1.69 1.69 0 0 0 .65-.268l.51.508.434-.434-.51-.51a1.69 1.69 0 0 0 .27-.65h.72v-.614h-.721a1.69 1.69 0 0 0-.268-.65l.509-.51-.435-.434-.51.51a1.69 1.69 0 0 0-.649-.27v-.72zm.307 1.46a.922.922 0 0 1 .921.921.922.922 0 0 1-.921.922.922.922 0 0 1-.922-.922.922.922 0 0 1 .922-.922z"
     fill="#5b8cc5"
     paint-order="stroke markers fill"
     id="path29"
     style="fill:#808080;fill-opacity:1" />
</svg>
