<?xml version="1.0" encoding="UTF-8" standalone="no"?>
<svg
   xmlns:dc="http://purl.org/dc/elements/1.1/"
   xmlns:cc="http://creativecommons.org/ns#"
   xmlns:rdf="http://www.w3.org/1999/02/22-rdf-syntax-ns#"
   xmlns:svg="http://www.w3.org/2000/svg"
   xmlns="http://www.w3.org/2000/svg"
   xmlns:xlink="http://www.w3.org/1999/xlink"
   xmlns:sodipodi="http://sodipodi.sourceforge.net/DTD/sodipodi-0.dtd"
   xmlns:inkscape="http://www.inkscape.org/namespaces/inkscape"
   width="64"
   height="64"
   viewBox="0 0 16.933 16.933"
   version="1.1"
   id="svg33"
   sodipodi:docname="default-folder-templates.svg"
   inkscape:version="0.92.4 (unknown)">
  <metadata
     id="metadata37">
    <rdf:RDF>
      <cc:Work
         rdf:about="">
        <dc:format>image/svg+xml</dc:format>
        <dc:type
           rdf:resource="http://purl.org/dc/dcmitype/StillImage" />
      </cc:Work>
    </rdf:RDF>
  </metadata>
  <sodipodi:namedview
     pagecolor="#ffffff"
     bordercolor="#666666"
     borderopacity="1"
     objecttolerance="10"
     gridtolerance="10"
     guidetolerance="10"
     inkscape:pageopacity="0"
     inkscape:pageshadow="2"
     inkscape:window-width="1366"
     inkscape:window-height="718"
     id="namedview35"
     showgrid="false"
     inkscape:zoom="20.85965"
     inkscape:cx="24.7309"
     inkscape:cy="19.739123"
     inkscape:window-x="0"
     inkscape:window-y="22"
     inkscape:window-maximized="1"
     inkscape:current-layer="svg33" />
  <defs
     id="defs11">
    <linearGradient
       xlink:href="#a"
       id="c"
       x1="-197.102"
       y1="217.681"
       x2="-196.914"
       y2="219.365"
       gradientUnits="userSpaceOnUse" />
    <linearGradient
       id="a">
      <stop
         offset="0"
         id="stop3" />
      <stop
         offset="1"
         stop-opacity="0"
         id="stop5" />
    </linearGradient>
    <clipPath
       clipPathUnits="userSpaceOnUse"
       id="b">
      <rect
         ry=".529"
         y="285.358"
         x=".529"
         height="9.525"
         width="15.875"
         transform="rotate(45)"
         fill="#5677fc"
         stroke-width=".251"
         stroke-opacity=".196"
         paint-order="markers stroke fill"
         id="rect8" />
    </clipPath>
  </defs>
  <g
     transform="translate(0 -280.067)"
     id="g25">
    <path
       d="M8.467 284.3c-.293 0-.382.276-.53.53l-.308.528H.794c-.265 0-.265.265-.265.265v8.996c0 .264.265.264.265.264H16.14c.264 0 .264-.264.264-.264v-10.054c0-.265-.264-.265-.264-.265z"
       fill="none"
       stroke="#003779"
       stroke-width=".529"
       stroke-opacity=".561"
       paint-order="markers stroke fill"
       id="path17"
       style="stroke:#808080;stroke-opacity:1" />
  </g>
  <path
     d="M6.085 6.88v5.82h5.821zm.265.66l4.895 4.895H6.35z"
     opacity=".3"
     id="path29"
     style="opacity:1;fill:#808080;fill-opacity:1" />
  <path
     d="M6.88 8.864v3.042h3.042zm.264.661l2.116 2.117H7.144z"
     opacity=".3"
     id="path31"
     style="fill:#808080;fill-opacity:1;opacity:1" />
</svg>
